<svg xmlns="http://www.w3.org/2000/svg" xmlns:xlink="http://www.w3.org/1999/xlink" xmlns:ev="http://www.w3.org/2001/xml-events"
		xmlns:v="http://schemas.microsoft.com/visio/2003/SVGExtensions/" width="1.48155in" height="0.994669in"
		viewBox="0 0 106.671 71.6161" xml:space="preserve" color-interpolation-filters="sRGB" class="st2">

    
		<g id="shape1-1" v:mID="1" v:groupContext="shape" transform="translate(0.375,-0.375)">
			<path fill="#D7D7D7" d="M61.75 19.46 L54.9 19.46 L54.9 6.42 L49.23 6.42 L49.23 1.32 L33.35 0.75 L33.35 12.09 L0 12.09 L0 37.6 L4.16
						 37.6 L4.16 43.27 L7.84 43.27 L7.84 55.36 L32.88 55.36 L32.88 59.14 L36.19 59.14 L36.19 66.7 L30.52 66.7
						 L30.52 71.62 L45.26 71.62 L45.26 66.51 L39.59 66.51 L39.59 61.6 L49.23 61.6 L49.23 59.14 L54.9 59.14 L54.9
						 44.97 L61.04 44.97 A24.0945 24.0945 -180 1 0 61.75 19.46 Z" class="st1"/>
		</g>
</svg>
