<svg version="1.1"
	 id="Layer_1" xmlns:v="http://schemas.microsoft.com/visio/2003/SVGExtensions/" xmlns:ev="http://www.w3.org/2001/xml-events"
	 xmlns="http://www.w3.org/2000/svg" xmlns:xlink="http://www.w3.org/1999/xlink" x="0px" y="0px" width="158.74px"
	 height="49.02px" viewBox="18.24 18.24 158.74 49.02" enable-background="new 18.24 18.24 158.74 49.02" xml:space="preserve">
		<linearGradient id="anim"  fy="0">
      <stop offset="0" stop-color="#148F01">
		</stop>
		<stop offset=".7" stop-color="#9AFC8A">
		</stop>
    </linearGradient>
        
		<g transform="translate(83.4369,-18.24)">
			<g>
				<path fill="#646464"  d="M92.543,36.48c0.55,0,1,0.45,1,1v39.979c0,0.55-0.45,1-1,1h-15.01c-0.55,0-1-0.45-1-1v-7.67
					c0-0.55-0.45-1-1-1h-38.53c-0.55,0-1.318,0.318-1.707,0.708l-6.986,6.994c-0.389,0.39-0.728,0.688-0.752,0.663
					s-0.495-0.045-1.045-0.045h-7.09c-0.55,0-1,0.45-1,1v6.39c0,0.55-0.45,1-1,1H1.003c-0.55,0-1-0.45-1-1V74.77c0-0.55-0.45-1-1-1
					h-12.18c-0.55,0-1-0.45-1-1v-2.98c0-0.55-0.45-1-1-1h-49.02c-0.55,0-1-0.45-1-1v-14.34c0-0.55,0.45-1,1-1h63.48
					c0.55,0,1-0.45,1-1V37.48c0-0.55,0.45-1,1-1H92.543z">
					
        </path>
			</g>
		</g>
</svg>
