<?xml version="1.0" encoding="utf-8"?>
<!-- Generator: Adobe Illustrator 15.0.2, SVG Export Plug-In . SVG Version: 6.00 Build 0)  -->
<!DOCTYPE svg PUBLIC "-//W3C//DTD SVG 1.1//EN" "http://www.w3.org/Graphics/SVG/1.1/DTD/svg11.dtd">
<svg version="1.1"
	 id="Layer_1" xmlns:v="http://schemas.microsoft.com/visio/2003/SVGExtensions/" xmlns:ev="http://www.w3.org/2001/xml-events"
	 xmlns="http://www.w3.org/2000/svg" xmlns:xlink="http://www.w3.org/1999/xlink" x="0px" y="0px" width="106.44px" height="58.1px"
	 viewBox="18.24 18.245 106.44 58.1" enable-background="new 18.24 18.245 106.44 58.1" xml:space="preserve">
<v:documentProperties  v:langID="1033" v:metric="true" v:viewMarkup="false">
	<v:userDefs>
		<v:ud  v:nameU="msvSubprocessMaster" v:prompt="" v:val="VT4(Box)"></v:ud>
		<v:ud  v:nameU="msvNoAutoConnect" v:val="VT0(1):26"></v:ud>
	</v:userDefs>
</v:documentProperties>
<g>
	<g>
		<g transform="translate(18.24,-36.6652)">
			<g>
				<path fill="#FF0000" d="M105.44,54.91c0.55,0,1,0.45,1,1v37.68c0,0.55-0.45,1-1,1h-3.67c-0.55,0-1,0.45-1,1v16.42
					c0,0.55-0.45,1-1,1H1c-0.55,0-1-0.45-1-1v-56.1c0-0.55,0.45-1,1-1H105.44z" style="stroke-width:2; stroke:rgb(255,255,255)"/>
			</g>
		</g>
	</g>
</g>
</svg>
