<svg xmlns="http://www.w3.org/2000/svg" xmlns:xlink="http://www.w3.org/1999/xlink" xmlns:ev="http://www.w3.org/2001/xml-events"
		xmlns:v="http://schemas.microsoft.com/visio/2003/SVGExtensions/" width="1.8805in" height="2.96952in"
		viewBox="0 0 135.396 213.806" xml:space="preserve" color-interpolation-filters="sRGB" class="st2">

		<g id="shape1-1" v:mID="1" v:groupContext="shape" transform="translate(0.375,-0.375)">
			<path fill="#D7D7D7" d="M18.43 14.67 L18.43 0.75 L103.67 0.75 L103.67 18.35 L115.21 29.9 L115.21 67.96 L134.65 67.96 L134.65 135.62
						 L124.7 135.62 L124.7 174.26 L106.3 174.26 L106.3 213.81 L45.14 213.81 L45.14 209.69 L35.54 209.69 L35.54
						 185.46 L18.63 185.46 L18.63 124.65 L0 124.65 L0 25.44 L18.43 14.67 Z" class="st1"/>
		</g>
</svg>
