<svg xmlns="http://www.w3.org/2000/svg" xmlns:xlink="http://www.w3.org/1999/xlink" xmlns:ev="http://www.w3.org/2001/xml-events"
		xmlns:v="http://schemas.microsoft.com/visio/2003/SVGExtensions/" width="4.34113in" height="1.2921in"
		viewBox="0 0 312.561 93.0314" xml:space="preserve" color-interpolation-filters="sRGB" class="st2">

	 <linearGradient id="anim"  x1="0%" y1="100%">
      <stop offset="0%" stop-color="#C7C402" stop-opacity="1">
		<animate attributeName="stop-color" 
		values="#C7C402;#FEFE82;#C7C402" dur="500ms" repeatCount="indefinite"/>
		</stop>
    </linearGradient>
		<g id="shape1-1" v:mID="1" v:groupContext="shape" transform="translate(0.375,-0.375)">
			<title>Sheet.1</title>
			<path fill="url(#anim)"  d="M0 0.91 L0 93.03 L113.39 93.03 L113.39 84.87 L177.17 84.87 L177.17 64.68 L244.12 64.68 L244.12 39.61 L311.81
						 39.61 L311.81 5.32 L113.39 5.32 L113.39 0.75 L0 0.91 Z" class="st1"/>
		</g>
</svg>
